| ST588Homework4 | Matt Bray
…
A tibbles smallest unit is a tibble, while the smallest unit of a data.frame is a vector.

A tibble does not convert strings to factors.

5. Rewrite the following nested function call using BaseR’s chaining operator.

library(dplyr)
library(readr)
library(forcats)
library(readxl)

arrange(filter(select(as_tibble(iris), starts_with("Petal"), Species), Petal.Length < 1.55), Species)

# A tibble: 37 × 3
   Petal.Length Petal.Width Species
          <dbl>       <dbl> <fct>  
 1          1.4         0.2 setosa 
 2          1.4         0.2 setosa 
 3          1.3         0.2 setosa 
 4          1.5         0.2 setosa 
 5          1.4         0.2 setosa 
 6          1.4         0.3 setosa 
 7          1.5         0.2 setosa 
 8          1.4         0.2 setosa 
 9          1.5         0.1 setosa 
10          1.5         0.2 setosa 
# ℹ 27 more rows

iris_tbl<-as_tibble(iris)
iris_tbl |>
  select(starts_with("Petal"),Species) |>
   filter(Petal.Length < 1.55) |>
    arrange(Species)

# A tibble: 37 × 3
   Petal.Length Petal.Width Species
          <dbl>       <dbl> <fct>  
 1          1.4         0.2 setosa 
 2          1.4         0.2 setosa 
 3          1.3         0.2 setosa 
 4          1.5         0.2 setosa 
 5          1.4         0.2 setosa 
 6          1.4         0.3 setosa 
 7          1.5         0.2 setosa 
 8          1.4         0.2 setosa 
 9          1.5         0.1 setosa 
10          1.5         0.2 setosa 
# ℹ 27 more rows

Task 2: Reading Delimited Data

Glass Data

Read in CSV file (glass.data) and add column names

headr <- c("Id", "RI", "Na", "Mg", "Al", "Si", "K", "Ca", "Ba", "Fe", "Type_of_Glass")
headTypes <- list("d", "d", "d", "d", "d", "d", "d", "d", "d", "d", "c")
glass<-read_csv("./glass.data", col_names=headr, col_types=headTypes)
glass

# A tibble: 214 × 11
      Id    RI    Na    Mg    Al    Si     K    Ca    Ba    Fe Type_of_Glass
   <dbl> <dbl> <dbl> <dbl> <dbl> <dbl> <dbl> <dbl> <dbl> <dbl> <chr>        
 1     1  1.52  13.6  4.49  1.1   71.8  0.06  8.75     0  0    1            
 2     2  1.52  13.9  3.6   1.36  72.7  0.48  7.83     0  0    1            
 3     3  1.52  13.5  3.55  1.54  73.0  0.39  7.78     0  0    1            
 4     4  1.52  13.2  3.69  1.29  72.6  0.57  8.22     0  0    1            
 5     5  1.52  13.3  3.62  1.24  73.1  0.55  8.07     0  0    1            
 6     6  1.52  12.8  3.61  1.62  73.0  0.64  8.07     0  0.26 1            
 7     7  1.52  13.3  3.6   1.14  73.1  0.58  8.17     0  0    1            
 8     8  1.52  13.2  3.61  1.05  73.2  0.57  8.24     0  0    1            
 9     9  1.52  14.0  3.58  1.37  72.1  0.56  8.3      0  0    1            
10    10  1.52  13    3.6   1.36  73.0  0.57  8.4      0  0.11 1            
# ℹ 204 more rows
Replace Type_of_Glass Numeric Values with Character Descriptors

glass |>
  mutate(Type_of_Glass = fct_recode(Type_of_Glass,
    "building_windows_float_processed"     = "1",
    "building_windows_non_float_processed" = "2",
    "vehicle_windows_float_processed"      = "3",
    "vehicle_windows_non_float_processed"  = "4",
    "containers"                           = "5",
    "tableware"                            = "6",
    "headlamps"                            = "7" 
  )) |>
  filter(Fe < 0.2, (Type_of_Glass == "tableware"|Type_of_Glass == "headlamps"))

# A tibble: 38 × 11
      Id    RI    Na    Mg    Al    Si     K    Ca    Ba    Fe Type_of_Glass
   <dbl> <dbl> <dbl> <dbl> <dbl> <dbl> <dbl> <dbl> <dbl> <dbl> <fct>        
 1   177  1.52  14    2.39  1.56  72.4  0     9.57  0        0 tableware    
 2   178  1.52  13.8  2.41  1.19  72.8  0     9.77  0        0 tableware    
 3   179  1.52  14.5  2.24  1.62  72.4  0     9.26  0        0 tableware    
 4   180  1.52  14.1  2.19  1.66  72.7  0     9.32  0        0 tableware    
 5   181  1.51  14.4  1.74  1.54  74.6  0     7.59  0        0 tableware    
 6   182  1.52  15.0  0.78  1.74  72.5  0     9.95  0        0 tableware    
 7   183  1.52  14.2  0     2.09  72.7  0    10.9   0        0 tableware    
 8   184  1.52  14.6  0     0.56  73.5  0    11.2   0        0 tableware    
 9   185  1.51  17.4  0     0.34  75.4  0     6.65  0        0 tableware    
10   186  1.51  13.7  3.2   1.81  72.8  1.76  5.43  1.19     0 headlamps    
# ℹ 28 more rows

Read in yeast.data and add column names

headry <- c("seq_name", "mcg", "gvh", "alm", "mit", "erl", "pox", "vac", "nuc", "class")
yeast<-read_table("./yeast.data", col_names=headry, show_col_types=FALSE)
yeast

# A tibble: 1,484 × 10
   seq_name     mcg   gvh   alm   mit   erl   pox   vac   nuc class
   <chr>      <dbl> <dbl> <dbl> <dbl> <dbl> <dbl> <dbl> <dbl> <chr>
 1 ADT1_YEAST  0.58  0.61  0.47  0.13   0.5   0    0.48  0.22 MIT  
 2 ADT2_YEAST  0.43  0.67  0.48  0.27   0.5   0    0.53  0.22 MIT  
 3 ADT3_YEAST  0.64  0.62  0.49  0.15   0.5   0    0.53  0.22 MIT  
 4 AAR2_YEAST  0.58  0.44  0.57  0.13   0.5   0    0.54  0.22 NUC  
 5 AATM_YEAST  0.42  0.44  0.48  0.54   0.5   0    0.48  0.22 MIT  
 6 AATC_YEAST  0.51  0.4   0.56  0.17   0.5   0.5  0.49  0.22 CYT  
 7 ABC1_YEAST  0.5   0.54  0.48  0.65   0.5   0    0.53  0.22 MIT  
 8 BAF1_YEAST  0.48  0.45  0.59  0.2    0.5   0    0.58  0.34 NUC  
 9 ABF2_YEAST  0.55  0.5   0.66  0.36   0.5   0    0.49  0.22 MIT  
10 ABP1_YEAST  0.4   0.39  0.6   0.15   0.5   0    0.58  0.3  CYT  
# ℹ 1,474 more rows

Remove seq_name and nuc columns, then add columns for means of each numeric variable at each class grouping

yeast |>
  select("mcg":"vac","class") |>
  arrange(class) |>
  group_by(class) |>
  mutate(across(where(is.numeric), 
                mean, .names = "mean_{.col}")) |>
  mutate(across(where(is.numeric), 
                median,.names = "med_{.col}")) |>
  select(-starts_with("med_mean"))

# A tibble: 1,484 × 22
# Groups:   class [10]
     mcg   gvh   alm   mit   erl   pox   vac class mean_mcg mean_gvh mean_alm
   <dbl> <dbl> <dbl> <dbl> <dbl> <dbl> <dbl> <chr>    <dbl>    <dbl>    <dbl>
 1  0.51  0.4   0.56  0.17   0.5   0.5  0.49 CYT      0.481    0.470    0.535
 2  0.4   0.39  0.6   0.15   0.5   0    0.58 CYT      0.481    0.470    0.535
 3  0.4   0.42  0.57  0.35   0.5   0    0.53 CYT      0.481    0.470    0.535
 4  0.46  0.44  0.52  0.11   0.5   0    0.5  CYT      0.481    0.470    0.535
 5  0.47  0.39  0.5   0.11   0.5   0    0.49 CYT      0.481    0.470    0.535
 6  0.45  0.4   0.5   0.16   0.5   0    0.5  CYT      0.481    0.470    0.535
 7  0.43  0.44  0.48  0.22   0.5   0    0.51 CYT      0.481    0.470    0.535
 8  0.73  0.63  0.42  0.3    0.5   0    0.49 CYT      0.481    0.470    0.535
 9  0.43  0.53  0.52  0.13   0.5   0    0.55 CYT      0.481    0.470    0.535
10  0.46  0.53  0.52  0.15   0.5   0    0.58 CYT      0.481    0.470    0.535
# ℹ 1,474 more rows
# ℹ 11 more variables: mean_mit <dbl>, mean_erl <dbl>, mean_pox <dbl>,
#   mean_vac <dbl>, med_mcg <dbl>, med_gvh <dbl>, med_alm <dbl>, med_mit <dbl>,
#   med_erl <dbl>, med_pox <dbl>, med_vac <dbl>

Task 3 Combining Excel and Delimited Data

Read in White Wine Dataset

Change names from non-standard to standard names and add wine type (white)

whiteWine <- read_excel("./white-wine.xlsx")
whiteWine

# A tibble: 4,898 × 12
   `fixed acidity` `volatile acidity` `citric acid` `residual sugar` chlorides
             <dbl>              <dbl>         <dbl>            <dbl>     <dbl>
 1               7               0.27          0.36             20.7     0.045
 2              63               0.3           0.34              1.6     0.049
 3              81               0.28          0.4               6.9     0.05 
 4              72               0.23          0.32              8.5     0.058
 5              72               0.23          0.32              8.5     0.058
 6              81               0.28          0.4               6.9     0.05 
 7              62               0.32          0.16              7       0.045
 8               7               0.27          0.36             20.7     0.045
 9              63               0.3           0.34              1.6     0.049
10              81               0.22          0.43              1.5     0.044
# ℹ 4,888 more rows
# ℹ 7 more variables: `free sulfur dioxide` <dbl>,
#   `total sulfur dioxide` <dbl>, density <dbl>, pH <dbl>, sulphates <dbl>,
#   alcohol <dbl>, quality <dbl>
…
Combine white and red wine datasets, filter for high quality and remove certain variables, add mean and sd calcs

combinedWine <- bind_rows(list(whiteWineA, redWineA))
combinedWine |> 
  filter(quality > 6.5 & alcohol < 132) |>
  arrange(desc(quality)) |>
  select(contains("acid"), alcohol, type, quality) |>
  group_by(quality) |>
  mutate(mean_alcohol = mean(alcohol)) |>
    mutate(sd_alcohol = sd(alcohol))

# A tibble: 1,206 × 8
# Groups:   quality [3]
   fixed_acidity volatile_acidity citric_acid alcohol type  quality mean_alcohol
           <dbl>            <dbl>       <dbl>   <dbl> <chr>   <dbl>        <dbl>
 1            91             0.27        0.45     104 white       9        122. 
 2            66             0.36        0.29     124 white       9        122. 
 3            74             0.24        0.36     125 white       9        122. 
 4            69             0.36        0.34     127 white       9        122. 
 5            71             0.26        0.49     129 white       9        122. 
 6            62             0.66        0.48     128 white       8         94.1
 7            62             0.66        0.48     128 white       8         94.1
 8            68             0.26        0.42     105 white       8         94.1
 9            67             0.23        0.31     107 white       8         94.1
10            67             0.23        0.31     107 white       8         94.1
# ℹ 1,196 more rows
# ℹ 1 more variable: sd_alcohol <dbl>
…
